1.00,0.33,0.47,0.80,0.08,0.21,0.20,0.40,0.51,0.01,0.00,0.13,0.11,0.20,0.07,0.36,0.04,0.11,0.00,0.35,0.45,0.45,0.00,0.07,0.54,0.15,0.00,0.33,0.00,0.02
,1.00,0.49,0.40,0.49,0.68,0.13,0.43,0.42,0.10,0.02,0.54,0.09,0.15,0.07,0.24,0.24,0.43,0.06,0.91,0.45,0.23,0.10,0.07,0.51,0.11,0.09,0.15,0.03,0.31
,,1.00,0.54,0.19,0.35,0.33,0.44,0.89,0.04,0.00,0.24,0.22,0.30,0.20,0.50,0.10,0.26,0.01,0.55,0.91,0.54,0.02,0.18,0.86,0.27,0.02,0.17,0.00,0.10
,,,1.00,0.11,0.27,0.18,0.53,0.57,0.01,0.00,0.17,0.10,0.19,0.07,0.35,0.06,0.17,0.00,0.42,0.51,0.39,0.00,0.07,0.62,0.13,0.00,0.31,0.00,0.04
,,,,1.00,0.52,0.02,0.19,0.15,0.15,0.02,0.73,0.01,0.04,0.00,0.07,0.37,0.48,0.13,0.44,0.18,0.05,0.16,0.01,0.19,0.01,0.14,0.05,0.04,0.62
,,,,,1.00,0.06,0.44,0.29,0.08,0.00,0.57,0.03,0.08,0.01,0.15,0.22,0.64,0.04,0.63,0.32,0.12,0.06,0.02,0.36,0.04,0.06,0.15,0.01,0.29
,,,,,,1.00,0.08,0.36,0.00,0.00,0.05,0.60,0.68,0.53,0.68,0.02,0.02,0.00,0.17,0.38,0.49,0.00,0.54,0.26,0.81,0.00,0.05,0.00,0.00
,,,,,,,1.00,0.42,0.02,0.00,0.25,0.04,0.11,0.02,0.21,0.09,0.31,0.00,0.41,0.40,0.19,0.01,0.02,0.50,0.06,0.01,0.33,0.00,0.07
,,,,,,,,1.00,0.03,0.00,0.20,0.23,0.33,0.22,0.55,0.09,0.21,0.00,0.48,0.89,0.60,0.02,0.20,0.80,0.30,0.02,0.18,0.00,0.08
,,,,,,,,,1.00,0.39,0.20,0.00,0.01,0.00,0.01,0.55,0.05,0.18,0.10,0.04,0.00,0.59,0.00,0.03,0.00,0.76,0.00,0.60,0.20
,,,,,,,,,,1.00,0.04,0.00,0.00,0.00,0.00,0.21,0.00,0.02,0.02,0.00,0.00,0.19,0.00,0.00,0.00,0.29,0.00,0.57,0.03
,,,,,,,,,,,1.00,0.03,0.06,0.01,0.11,0.42,0.43,0.14,0.50,0.23,0.08,0.22,0.02,0.24,0.03,0.19,0.08,0.08,0.57
,,,,,,,,,,,,1.00,0.81,0.50,0.49,0.01,0.01,0.00,0.11,0.25,0.29,0.00,0.87,0.17,0.73,0.00,0.02,0.00,0.00
,,,,,,,,,,,,,1.00,0.44,0.60,0.03,0.04,0.00,0.17,0.34,0.40,0.00,0.71,0.25,0.75,0.00,0.07,0.00,0.02
,,,,,,,,,,,,,,1.00,0.36,0.00,0.00,0.00,0.09,0.23,0.31,0.00,0.52,0.15,0.55,0.00,0.00,0.00,0.00
,,,,,,,,,,,,,,,1.00,0.05,0.09,0.00,0.28,0.56,0.61,0.01,0.44,0.43,0.62,0.01,0.12,0.00,0.03
,,,,,,,,,,,,,,,,1.00,0.18,0.18,0.23,0.10,0.03,0.53,0.01,0.10,0.01,0.59,0.02,0.33,0.44
,,,,,,,,,,,,,,,,,1.00,0.01,0.40,0.24,0.06,0.03,0.00,0.27,0.01,0.03,0.07,0.00,0.24
,,,,,,,,,,,,,,,,,,1.00,0.06,0.01,0.00,0.30,0.00,0.01,0.00,0.23,0.00,0.06,0.22
,,,,,,,,,,,,,,,,,,,1.00,0.51,0.28,0.09,0.09,0.58,0.14,0.08,0.14,0.03,0.28
,,,,,,,,,,,,,,,,,,,,1.00,0.55,0.02,0.22,0.79,0.32,0.02,0.16,0.00,0.10
,,,,,,,,,,,,,,,,,,,,,1.00,0.00,0.24,0.48,0.39,0.00,0.15,0.00,0.01
,,,,,,,,,,,,,,,,,,,,,,1.00,0.00,0.02,0.00,0.76,0.00,0.34,0.23
,,,,,,,,,,,,,,,,,,,,,,,1.00,0.13,0.67,0.00,0.01,0.00,0.00
,,,,,,,,,,,,,,,,,,,,,,,,1.00,0.21,0.02,0.19,0.00,0.09
,,,,,,,,,,,,,,,,,,,,,,,,,1.00,0.00,0.03,0.00,0.00
,,,,,,,,,,,,,,,,,,,,,,,,,,1.00,0.00,0.50,0.20
,,,,,,,,,,,,,,,,,,,,,,,,,,,1.00,0.00,0.01
,,,,,,,,,,,,,,,,,,,,,,,,,,,,1.00,0.06
,,,,,,,,,,,,,,,,,,,,,,,,,,,,,1.00
